; Engine configuration file.
; It's best edited using the editor UI and not directly,
; since the parameters that go here are not all obvious.
;
; Format:
;   [section] ; section goes between []
;   param=value ; assign values to parameters

config_version=4

_global_script_classes=[ {
"base": "Node",
"class": "DictUtils",
"language": "GDScript",
"path": "res://utils/dictUtils.gd"
}, {
"base": "Object",
"class": "Inventory",
"language": "GDScript",
"path": "res://objects/inventory/inventory.gd"
}, {
"base": "Object",
"class": "Item",
"language": "GDScript",
"path": "res://objects/item.gd"
}, {
"base": "Reference",
"class": "Menu",
"language": "GDScript",
"path": "res://addons/tree_menu/Menu.gd"
}, {
"base": "Node",
"class": "Terrain",
"language": "GDScript",
"path": "res://global/Terrain.gd"
} ]
_global_script_class_icons={
"DictUtils": "",
"Inventory": "",
"Item": "",
"Menu": "",
"Terrain": ""
}

[application]

config/name="umbrella"
config/description="A metroidvania game focusing on exploration and ingredient collection."
run/main_scene="res://Splash.tscn"
boot_splash/image="res://art/splash.png"
boot_splash/use_filter=false
boot_splash/bg_color=Color( 0.192157, 0.862745, 0.862745, 1 )
config/icon="res://icon.png"
config/windows_native_icon="res://icon.ico"

[autoload]

Global="*res://global/globals.gd"
Config="*res://global/config.gd"
LevelManager="*res://levelManager.tscn"
Math="*res://global/Math.gd"
Logger="*res://global/logger.gd"
ControlsManager="*res://Settings/ControlsManager.gd"
SoundManager="*res://global/SoundManager.gd"

[debug]

gdscript/completion/autocomplete_setters_and_getters=true
gdscript/warnings/unused_class_variable=true
gdscript/warnings/unsafe_cast=true
gdscript/warnings/unsafe_call_argument=true

[display]

window/size/width=320
window/size/height=240
window/size/test_width=640
window/size/test_height=480
window/stretch/mode="viewport"
window/stretch/aspect="keep"

[editor_plugins]

enabled=PoolStringArray( "res://addons/todo/plugin.cfg" )

[gui]

theme/custom_font="res://fonts/fontNorm.tres"

[importer_defaults]

texture={
"compress/bptc_ldr": 0,
"compress/hdr_mode": 0,
"compress/lossy_quality": 0.7,
"compress/mode": 0,
"compress/normal_map": 0,
"detect_3d": false,
"flags/anisotropic": false,
"flags/filter": false,
"flags/mipmaps": false,
"flags/repeat": 0,
"flags/srgb": 2,
"process/HDR_as_SRGB": false,
"process/fix_alpha_border": true,
"process/invert_color": false,
"process/premult_alpha": false,
"size_limit": 0,
"stream": false,
"svg/scale": 1.0
}
vnen.tiled_tileset_importer={
"image_flags": 0,
"save_tiled_properties": true,
"tile_metadata": true
}
vnen.tiled_importer={
"collision_layer": 255,
"embed_internal_images": true,
"image_flags": 0,
"save_tiled_properties": true,
"tile_metadata": true
}

[input]

ui_accept={
"deadzone": 0.5,
"events": [ Object(InputEventKey,"resource_local_to_scene":false,"resource_name":"","device":0,"alt":false,"shift":false,"control":false,"meta":false,"command":false,"pressed":false,"scancode":90,"physical_scancode":0,"unicode":0,"echo":false,"script":null)
, Object(InputEventKey,"resource_local_to_scene":false,"resource_name":"","device":0,"alt":false,"shift":false,"control":false,"meta":false,"command":false,"pressed":false,"scancode":16777221,"physical_scancode":0,"unicode":0,"echo":false,"script":null)
, Object(InputEventKey,"resource_local_to_scene":false,"resource_name":"","device":0,"alt":false,"shift":false,"control":false,"meta":false,"command":false,"pressed":false,"scancode":32,"physical_scancode":0,"unicode":0,"echo":false,"script":null)
, Object(InputEventJoypadButton,"resource_local_to_scene":false,"resource_name":"","device":0,"button_index":0,"pressure":0.0,"pressed":false,"script":null)
 ]
}
ui_select={
"deadzone": 0.5,
"events": [ Object(InputEventKey,"resource_local_to_scene":false,"resource_name":"","device":0,"alt":false,"shift":false,"control":false,"meta":false,"command":false,"pressed":false,"scancode":32,"physical_scancode":0,"unicode":0,"echo":false,"script":null)
 ]
}
ui_cancel={
"deadzone": 0.5,
"events": [ Object(InputEventKey,"resource_local_to_scene":false,"resource_name":"","device":0,"alt":false,"shift":false,"control":false,"meta":false,"command":false,"pressed":false,"scancode":88,"physical_scancode":0,"unicode":0,"echo":false,"script":null)
, Object(InputEventKey,"resource_local_to_scene":false,"resource_name":"","device":0,"alt":false,"shift":false,"control":false,"meta":false,"command":false,"pressed":false,"scancode":16777217,"physical_scancode":0,"unicode":0,"echo":false,"script":null)
, Object(InputEventJoypadButton,"resource_local_to_scene":false,"resource_name":"","device":0,"button_index":1,"pressure":0.0,"pressed":false,"script":null)
 ]
}
ui_left={
"deadzone": 0.5,
"events": [ Object(InputEventKey,"resource_local_to_scene":false,"resource_name":"","device":0,"alt":false,"shift":false,"control":false,"meta":false,"command":false,"pressed":false,"scancode":16777231,"physical_scancode":0,"unicode":0,"echo":false,"script":null)
, Object(InputEventJoypadButton,"resource_local_to_scene":false,"resource_name":"","device":0,"button_index":14,"pressure":0.0,"pressed":false,"script":null)
, Object(InputEventJoypadMotion,"resource_local_to_scene":false,"resource_name":"","device":0,"axis":0,"axis_value":-1.0,"script":null)
 ]
}
ui_right={
"deadzone": 0.5,
"events": [ Object(InputEventKey,"resource_local_to_scene":false,"resource_name":"","device":0,"alt":false,"shift":false,"control":false,"meta":false,"command":false,"pressed":false,"scancode":16777233,"physical_scancode":0,"unicode":0,"echo":false,"script":null)
, Object(InputEventJoypadButton,"resource_local_to_scene":false,"resource_name":"","device":0,"button_index":15,"pressure":0.0,"pressed":false,"script":null)
, Object(InputEventJoypadMotion,"resource_local_to_scene":false,"resource_name":"","device":0,"axis":0,"axis_value":1.0,"script":null)
 ]
}
ui_up={
"deadzone": 0.5,
"events": [ Object(InputEventKey,"resource_local_to_scene":false,"resource_name":"","device":0,"alt":false,"shift":false,"control":false,"meta":false,"command":false,"pressed":false,"scancode":16777232,"physical_scancode":0,"unicode":0,"echo":false,"script":null)
, Object(InputEventJoypadButton,"resource_local_to_scene":false,"resource_name":"","device":0,"button_index":12,"pressure":0.0,"pressed":false,"script":null)
, Object(InputEventJoypadMotion,"resource_local_to_scene":false,"resource_name":"","device":0,"axis":1,"axis_value":-1.0,"script":null)
 ]
}
ui_down={
"deadzone": 0.5,
"events": [ Object(InputEventKey,"resource_local_to_scene":false,"resource_name":"","device":0,"alt":false,"shift":false,"control":false,"meta":false,"command":false,"pressed":false,"scancode":16777234,"physical_scancode":0,"unicode":0,"echo":false,"script":null)
, Object(InputEventJoypadButton,"resource_local_to_scene":false,"resource_name":"","device":0,"button_index":13,"pressure":0.0,"pressed":false,"script":null)
, Object(InputEventJoypadMotion,"resource_local_to_scene":false,"resource_name":"","device":0,"axis":1,"axis_value":1.0,"script":null)
 ]
}
ui_page_up={
"deadzone": 0.5,
"events": [ Object(InputEventKey,"resource_local_to_scene":false,"resource_name":"","device":0,"alt":false,"shift":false,"control":false,"meta":false,"command":false,"pressed":false,"scancode":16777235,"physical_scancode":0,"unicode":0,"echo":false,"script":null)
, Object(InputEventJoypadButton,"resource_local_to_scene":false,"resource_name":"","device":0,"button_index":4,"pressure":0.0,"pressed":false,"script":null)
 ]
}
ui_page_down={
"deadzone": 0.5,
"events": [ Object(InputEventKey,"resource_local_to_scene":false,"resource_name":"","device":0,"alt":false,"shift":false,"control":false,"meta":false,"command":false,"pressed":false,"scancode":16777236,"physical_scancode":0,"unicode":0,"echo":false,"script":null)
, Object(InputEventJoypadButton,"resource_local_to_scene":false,"resource_name":"","device":0,"button_index":5,"pressure":0.0,"pressed":false,"script":null)
 ]
}
jump={
"deadzone": 0.5,
"events": [ Object(InputEventKey,"resource_local_to_scene":false,"resource_name":"","device":0,"alt":false,"shift":false,"control":false,"meta":false,"command":false,"pressed":false,"scancode":90,"physical_scancode":0,"unicode":0,"echo":false,"script":null)
, Object(InputEventJoypadButton,"resource_local_to_scene":false,"resource_name":"","device":0,"button_index":0,"pressure":0.0,"pressed":false,"script":null)
 ]
}
umbrella={
"deadzone": 0.5,
"events": [ Object(InputEventKey,"resource_local_to_scene":false,"resource_name":"","device":0,"alt":false,"shift":false,"control":false,"meta":false,"command":false,"pressed":false,"scancode":88,"physical_scancode":0,"unicode":0,"echo":false,"script":null)
, Object(InputEventJoypadButton,"resource_local_to_scene":false,"resource_name":"","device":0,"button_index":1,"pressure":0.0,"pressed":false,"script":null)
 ]
}
quit={
"deadzone": 0.5,
"events": [ Object(InputEventKey,"resource_local_to_scene":false,"resource_name":"","device":0,"alt":false,"shift":false,"control":true,"meta":false,"command":true,"pressed":false,"scancode":81,"physical_scancode":0,"unicode":0,"echo":false,"script":null)
 ]
}
inventory={
"deadzone": 0.5,
"events": [ Object(InputEventKey,"resource_local_to_scene":false,"resource_name":"","device":0,"alt":false,"shift":false,"control":false,"meta":false,"command":false,"pressed":false,"scancode":70,"physical_scancode":0,"unicode":0,"echo":false,"script":null)
, Object(InputEventJoypadButton,"resource_local_to_scene":false,"resource_name":"","device":0,"button_index":2,"pressure":0.0,"pressed":false,"script":null)
 ]
}
settings={
"deadzone": 0.5,
"events": [ Object(InputEventKey,"resource_local_to_scene":false,"resource_name":"","device":0,"alt":false,"shift":false,"control":false,"meta":false,"command":false,"pressed":false,"scancode":16777217,"physical_scancode":0,"unicode":0,"echo":false,"script":null)
, Object(InputEventJoypadButton,"resource_local_to_scene":false,"resource_name":"","device":0,"button_index":10,"pressure":0.0,"pressed":false,"script":null)
 ]
}
debug={
"deadzone": 0.5,
"events": [ Object(InputEventKey,"resource_local_to_scene":false,"resource_name":"","device":0,"alt":false,"shift":false,"control":false,"meta":false,"command":false,"pressed":false,"scancode":16777243,"physical_scancode":0,"unicode":0,"echo":false,"script":null)
 ]
}
screenshot={
"deadzone": 0.5,
"events": [ Object(InputEventKey,"resource_local_to_scene":false,"resource_name":"","device":0,"alt":false,"shift":false,"control":true,"meta":false,"command":true,"pressed":false,"scancode":83,"physical_scancode":0,"unicode":0,"echo":false,"script":null)
 ]
}
debug_console={
"deadzone": 0.5,
"events": [ Object(InputEventKey,"resource_local_to_scene":false,"resource_name":"","device":0,"alt":false,"shift":false,"control":false,"meta":false,"command":false,"pressed":false,"scancode":96,"physical_scancode":0,"unicode":0,"echo":false,"script":null)
 ]
}
fullscreen={
"deadzone": 0.5,
"events": [ Object(InputEventKey,"resource_local_to_scene":false,"resource_name":"","device":0,"alt":false,"shift":false,"control":false,"meta":false,"command":false,"pressed":false,"scancode":16777247,"physical_scancode":0,"unicode":0,"echo":false,"script":null)
, Object(InputEventKey,"resource_local_to_scene":false,"resource_name":"","device":0,"alt":false,"shift":false,"control":true,"meta":false,"command":true,"pressed":false,"scancode":70,"physical_scancode":0,"unicode":0,"echo":false,"script":null)
, Object(InputEventKey,"resource_local_to_scene":false,"resource_name":"","device":0,"alt":false,"shift":false,"control":false,"meta":false,"command":false,"pressed":false,"scancode":16777254,"physical_scancode":0,"unicode":0,"echo":false,"script":null)
 ]
}

[layer_names]

2d_physics/layer_1="level"
2d_physics/layer_2="interact"
2d_physics/layer_3="player"
2d_physics/layer_4="hazards"
2d_physics/layer_5="object interactions"
2d_physics/layer_6="rope"

[locale]

translations=PoolStringArray( "res://translations/translation.en.translation", "res://translations/translation.ru.translation" )
locale_filter=[ 0, [  ] ]

[logging]

file_logging/enable_file_logging=true
file_logging/max_log_files=100

[network]

limits/debugger_stdout/max_chars_per_second=100000
limits/debugger_stdout/max_messages_per_frame=100

[rendering]

2d/snapping/use_gpu_pixel_snap=true
environment/default_clear_color=Color( 0.00392157, 0.00392157, 0.0509804, 1 )
environment/default_environment="res://default_env.tres"
quality/dynamic_fonts/use_oversampling=false
quality/2d/use_pixel_snap=true

[tiled_importer]

enable_json_format=true
