[gd_scene load_steps=5 format=2]

[ext_resource path="res://objects/npc/npc.gd" type="Script" id=1]
[ext_resource path="res://objects/npc/question.png" type="Texture" id=3]
[ext_resource path="res://objects/lights/circle.png" type="Texture" id=4]

[sub_resource type="RectangleShape2D" id=1]
extents = Vector2( 16, 48 )

[node name="npc" type="Area2D"]
collision_layer = 4
collision_mask = 4
script = ExtResource( 1 )

[node name="CollisionShape2D" type="CollisionShape2D" parent="."]
position = Vector2( 0.5, 0 )
shape = SubResource( 1 )

[node name="Sprite" type="Sprite" parent="."]
texture = ExtResource( 3 )

[node name="Light2D" type="Light2D" parent="."]
position = Vector2( 0.5, 0 )
scale = Vector2( 0.264, 1 )
texture = ExtResource( 4 )
mode = 2
