[gd_scene load_steps=4 format=2]

[ext_resource path="res://objects/eater/eater.gd" type="Script" id=1]
[ext_resource path="res://objects/door/door.png" type="Texture" id=2]

[sub_resource type="RectangleShape2D" id=1]
extents = Vector2( 9, 12 )

[node name="Area2D" type="Area2D"]
z_index = -1
collision_layer = 2
collision_mask = 2
script = ExtResource( 1 )

[node name="Sprite" type="Sprite" parent="."]
position = Vector2( 0.290322, 4 )
scale = Vector2( 0.580645, 0.8 )
texture = ExtResource( 2 )

[node name="CollisionShape2D" type="CollisionShape2D" parent="."]
position = Vector2( 0, 4 )
shape = SubResource( 1 )
