[gd_scene load_steps=6 format=2]

[ext_resource path="res://objects/overworld_item/overworld_item.gd" type="Script" id=1]
[ext_resource path="res://icon.png" type="Texture" id=2]

[sub_resource type="Animation" id=2]
length = 0.001
tracks/0/type = "value"
tracks/0/path = NodePath(".:offset")
tracks/0/interp = 1
tracks/0/loop_wrap = true
tracks/0/imported = false
tracks/0/enabled = true
tracks/0/keys = {
"times": PoolRealArray( 0 ),
"transitions": PoolRealArray( 1 ),
"update": 0,
"values": [ Vector2( 0, 0 ) ]
}

[sub_resource type="Animation" id=3]
resource_name = "float"
loop = true
step = 0.05
tracks/0/type = "value"
tracks/0/path = NodePath(".:offset")
tracks/0/interp = 2
tracks/0/loop_wrap = true
tracks/0/imported = false
tracks/0/enabled = true
tracks/0/keys = {
"times": PoolRealArray( 0, 0.5 ),
"transitions": PoolRealArray( 1, 1 ),
"update": 0,
"values": [ Vector2( 0, -5 ), Vector2( 0, 5 ) ]
}

[sub_resource type="RectangleShape2D" id=1]

[node name="overworld_item" type="Area2D"]
script = ExtResource( 1 )

[node name="AnimationPlayer" type="AnimationPlayer" parent="."]
root_node = NodePath("../Sprite")
anims/RESET = SubResource( 2 )
anims/float = SubResource( 3 )

[node name="Sprite" type="Sprite" parent="."]
texture = ExtResource( 2 )

[node name="CollisionShape2D" type="CollisionShape2D" parent="."]
shape = SubResource( 1 )
